Orchestrating Microbiome Analysis - 3 Data Manipulation
…
3.1.1 Tidy data

For several custom analysis and visualization packages, such as those from tidyverse, the SE data can be converted to a long data.frame format with meltSE.

library(mia)
data(GlobalPatterns, package="mia")
tse <- GlobalPatterns
tse <- transformAssay(tse, MARGIN = "samples", method="relabundance")
molten_tse <- mia::meltSE(tse,
                        add_row_data = TRUE,
                        add_col_data = TRUE,
                        assay.type = "relabundance")
# Show the first five columns
molten_tse[,1:5]
##  # A tibble: 499,616 × 5
##    FeatureID SampleID relabundance Kingdom Phylum       
##    <fct>     <fct>           <dbl> <chr>   <chr>        
##  1 549322    CL3                 0 Archaea Crenarchaeota
##  2 549322    CC1                 0 Archaea Crenarchaeota
##  3 549322    SV1                 0 Archaea Crenarchaeota
##  4 549322    M31Fcsw             0 Archaea Crenarchaeota
##  5 549322    M11Fcsw             0 Archaea Crenarchaeota
##  6 549322    M31Plmr             0 Archaea Crenarchaeota
##  # ℹ 499,610 more rows
…
