Orchestrating Microbiome Analysis - 9 Community Typing (Clustering)
…
Once the optimal model have been confirmed, we can find out which samples are grouped with each other. The table below shows one sample of each sample type clustered in either of the groups. We can notice that DMM can distinguish environmental samples into one group, and mock and human samples into another. For clarity, in this example, the probabilities for each sample to belong in each cluster have been rounded.

library(dplyr)

clusters <- round(metadata(altExp(tse, "dmm"))$DMM$prob, 1)
clusters <- as.data.frame(cbind(clusters, levels(altExp(tse, "dmm")$SampleType)[altExp(tse, "dmm")$SampleType])) # add sample type information
colnames(clusters) <- c("Group1", "Group2", "SampleType")

clusters %>%
  group_by(SampleType) %>%
  arrange(Group1) %>%
  filter(row_number()==1)
##  # A tibble: 9 × 3
##  # Groups:   SampleType [9]
##    Group1 Group2 SampleType
##    <chr>  <chr>  <chr>     
##  1 0      1      Feces     
##  2 0      1      Skin      
##  3 0      1      Tongue    
##  4 0      1      Mock      
##  5 1      0      Soil      
##  6 1      0      Freshwater
##  # ℹ 3 more rows
…
